<?xml version="1.0" encoding="UTF-8" standalone="no"?>
<!-- Created with Inkscape (http://www.inkscape.org/) -->

<svg
   xmlns:dc="http://purl.org/dc/elements/1.1/"
   xmlns:cc="http://creativecommons.org/ns#"
   xmlns:rdf="http://www.w3.org/1999/02/22-rdf-syntax-ns#"
   xmlns:svg="http://www.w3.org/2000/svg"
   xmlns="http://www.w3.org/2000/svg"
   xmlns:sodipodi="http://sodipodi.sourceforge.net/DTD/sodipodi-0.dtd"
   xmlns:inkscape="http://www.inkscape.org/namespaces/inkscape"
   width="750"
   height="750"
   viewBox="0 0 198.4375 198.43751"
   version="1.1"
   id="svg4750"
   inkscape:version="0.92.0 r15299"
   sodipodi:docname="LevelTree.svg">
  <defs
     id="defs4744" />
  <sodipodi:namedview
     id="base"
     pagecolor="#ffffff"
     bordercolor="#666666"
     borderopacity="1.0"
     inkscape:pageopacity="0.0"
     inkscape:pageshadow="2"
     inkscape:zoom="0.7"
     inkscape:cx="317.6165"
     inkscape:cy="510.85661"
     inkscape:document-units="mm"
     inkscape:current-layer="layer2"
     showgrid="false"
     inkscape:window-width="1858"
     inkscape:window-height="1057"
     inkscape:window-x="54"
     inkscape:window-y="363"
     inkscape:window-maximized="1"
     fit-margin-top="0"
     fit-margin-left="0"
     fit-margin-right="0"
     fit-margin-bottom="0"
     units="px" />
  <metadata
     id="metadata4747">
    <rdf:RDF>
      <cc:Work
         rdf:about="">
        <dc:format>image/svg+xml</dc:format>
        <dc:type
           rdf:resource="http://purl.org/dc/dcmitype/StillImage" />
        <dc:title></dc:title>
      </cc:Work>
    </rdf:RDF>
  </metadata>
  <g
     inkscape:label="Layer 1"
     inkscape:groupmode="layer"
     id="layer1"
     transform="translate(-15.440351,9.3264664)">
    <g
       style="display:inline"
       id="g5556"
       transform="matrix(5.2381539,0,0,4.4284977,8.7182881,-589.63156)">
      <path
         sodipodi:type="star"
         style="opacity:1;fill:#4d4d4d;fill-opacity:1;fill-rule:nonzero;stroke:none;stroke-width:1.00157475;stroke-miterlimit:4;stroke-dasharray:none;stroke-opacity:1"
         id="path5550"
         sodipodi:sides="6"
         sodipodi:cx="220.21326"
         sodipodi:cy="65.116577"
         sodipodi:r1="239.24413"
         sodipodi:r2="95.697655"
         sodipodi:arg1="0.52359878"
         sodipodi:arg2="1.0471976"
         inkscape:flatsided="false"
         inkscape:rounded="0"
         inkscape:randomized="0"
         d="M 427.40475,184.73864 268.06208,147.99318 220.21326,304.3607 172.36443,147.99317 13.021766,184.73864 124.5156,65.116572 13.021767,-54.505486 172.36443,-17.760025 220.21326,-174.12755 268.06209,-17.760021 427.40475,-54.505485 315.91091,65.116582 Z"
         transform="matrix(0.0505108,0,0,0.05974562,9.10169,149.55299)"
         inkscape:transform-center-x="-2.2127107e-006"
         inkscape:transform-center-y="1.6371068e-005" />
      <path
         sodipodi:type="star"
         style="opacity:1;fill:#ffffff;fill-opacity:1;fill-rule:nonzero;stroke:none;stroke-width:1.00157475;stroke-miterlimit:4;stroke-dasharray:none;stroke-opacity:1"
         id="path5552"
         sodipodi:sides="6"
         sodipodi:cx="328.29959"
         sodipodi:cy="181.28412"
         sodipodi:r1="236.46126"
         sodipodi:r2="94.584503"
         sodipodi:arg1="1.5707963"
         sodipodi:arg2="2.0943951"
         inkscape:flatsided="false"
         inkscape:rounded="0"
         inkscape:randomized="0"
         d="M 328.2996,417.74538 281.00734,263.1967 123.51814,299.51475 233.71509,181.28412 123.51813,63.053495 281.00734,99.371536 328.29958,-55.177139 375.59184,99.371536 533.08104,63.053484 422.88409,181.28412 533.08105,299.51474 375.59184,263.1967 Z"
         transform="matrix(0.0427868,0,0,0.05060945,6.1779488,144.26873)"
         inkscape:transform-center-x="-2.6648114e-006"
         inkscape:transform-center-y="4.4381388e-005" />
    </g>
  </g>
  <g
     inkscape:groupmode="layer"
     id="layer2"
     inkscape:label="Layer 2"
     transform="translate(-15.440351,9.3264664)"
     style="display:inline">
    <g
       id="g5767"
       transform="translate(0,-4.9999926)">
      <rect
         style="opacity:1;fill:#4d4d4d;fill-opacity:1;fill-rule:nonzero;stroke:none;stroke-width:0.87902004;stroke-miterlimit:4;stroke-dasharray:none;stroke-opacity:1"
         id="rect4844-2-1"
         width="20.012838"
         height="13.955478"
         x="104.65268"
         y="146.44655" />
      <rect
         style="opacity:1;fill:#ffffff;fill-opacity:1;fill-rule:nonzero;stroke:none;stroke-width:0.71277392;stroke-miterlimit:4;stroke-dasharray:none;stroke-opacity:1"
         id="rect4844-3-3-7"
         width="17.091255"
         height="10.744482"
         x="106.11347"
         y="148.05202" />
    </g>
    <g
       id="g5592">
      <path
         transform="matrix(0.98629755,-0.06302554,-0.07454841,-0.83384653,75.468267,235.79172)"
         inkscape:transform-center-y="0.68343043"
         inkscape:transform-center-x="0.0016289486"
         d="m 75.63727,201.05022 -41.116531,3.13815 -15.690261,-38.1344 31.419417,-26.70651 35.108528,21.62888 z"
         inkscape:randomized="0"
         inkscape:rounded="0"
         inkscape:flatsided="true"
         sodipodi:arg2="1.4946208"
         sodipodi:arg1="0.86630226"
         sodipodi:r2="28.378323"
         sodipodi:r1="35.077534"
         sodipodi:cy="174.32327"
         sodipodi:cx="52.919361"
         sodipodi:sides="5"
         id="path4494-5"
         style="opacity:1;fill:#4d4d4d;fill-opacity:1;fill-rule:nonzero;stroke:none;stroke-width:0.26499999;stroke-miterlimit:4;stroke-dasharray:none;stroke-opacity:1"
         sodipodi:type="star" />
      <path
         transform="matrix(0.80187011,-0.05124038,-0.06060858,-0.67792585,82.796539,208.51003)"
         inkscape:transform-center-y="0.55563394"
         inkscape:transform-center-x="0.0013238906"
         d="m 75.63727,201.05022 -41.116531,3.13815 -15.690261,-38.1344 31.419417,-26.70651 35.108528,21.62888 z"
         inkscape:randomized="0"
         inkscape:rounded="0"
         inkscape:flatsided="true"
         sodipodi:arg2="1.4946208"
         sodipodi:arg1="0.86630226"
         sodipodi:r2="28.378323"
         sodipodi:r1="35.077534"
         sodipodi:cy="174.32327"
         sodipodi:cx="52.919361"
         sodipodi:sides="5"
         id="path4494-6-9"
         style="opacity:1;fill:#ffffff;fill-opacity:1;fill-rule:nonzero;stroke:none;stroke-width:0.26499999;stroke-miterlimit:4;stroke-dasharray:none;stroke-opacity:1"
         sodipodi:type="star" />
      <rect
         y="98.776634"
         x="99.005127"
         height="21.83186"
         width="31.307953"
         id="rect4844-35"
         style="opacity:1;fill:#4d4d4d;fill-opacity:1;fill-rule:nonzero;stroke:none;stroke-width:1.37513328;stroke-miterlimit:4;stroke-dasharray:none;stroke-opacity:1" />
      <rect
         y="101.19381"
         x="101.29037"
         height="16.808599"
         width="26.737452"
         id="rect4844-3-2"
         style="opacity:1;fill:#ffffff;fill-opacity:1;fill-rule:nonzero;stroke:none;stroke-width:1.11505902;stroke-miterlimit:4;stroke-dasharray:none;stroke-opacity:1" />
    </g>
    <g
       id="g5759"
       transform="translate(-7.6611815,-10.370461)">
      <rect
         style="opacity:1;fill:#4d4d4d;fill-opacity:1;fill-rule:nonzero;stroke:none;stroke-width:0.87902004;stroke-miterlimit:4;stroke-dasharray:none;stroke-opacity:1"
         id="rect4844-2-1-6"
         width="20.012838"
         height="13.955478"
         x="166.75591"
         y="125.15555" />
      <rect
         style="opacity:1;fill:#ffffff;fill-opacity:1;fill-rule:nonzero;stroke:none;stroke-width:0.71277392;stroke-miterlimit:4;stroke-dasharray:none;stroke-opacity:1"
         id="rect4844-3-3-7-9"
         width="17.091255"
         height="10.744482"
         x="168.21669"
         y="126.76103" />
    </g>
    <g
       id="g5775"
       transform="translate(7.8089133,-10.370459)">
      <rect
         style="opacity:1;fill:#4d4d4d;fill-opacity:1;fill-rule:nonzero;stroke:none;stroke-width:0.87902004;stroke-miterlimit:4;stroke-dasharray:none;stroke-opacity:1"
         id="rect4844-2-1-6-4"
         width="20.012838"
         height="13.955478"
         x="42.401733"
         y="125.15555" />
      <rect
         style="opacity:1;fill:#ffffff;fill-opacity:1;fill-rule:nonzero;stroke:none;stroke-width:0.71277392;stroke-miterlimit:4;stroke-dasharray:none;stroke-opacity:1"
         id="rect4844-3-3-7-9-5"
         width="17.091255"
         height="10.744482"
         x="43.862526"
         y="126.76103" />
    </g>
    <g
       id="g5743"
       transform="translate(7.8089119,-10.34071)">
      <rect
         style="opacity:1;fill:#4d4d4d;fill-opacity:1;fill-rule:nonzero;stroke:none;stroke-width:0.87902004;stroke-miterlimit:4;stroke-dasharray:none;stroke-opacity:1"
         id="rect4844-2-1-6-4-3"
         width="20.012838"
         height="13.955478"
         x="42.401733"
         y="61.38472" />
      <rect
         style="opacity:1;fill:#ffffff;fill-opacity:1;fill-rule:nonzero;stroke:none;stroke-width:0.71277392;stroke-miterlimit:4;stroke-dasharray:none;stroke-opacity:1"
         id="rect4844-3-3-7-9-5-3"
         width="17.091255"
         height="10.744482"
         x="43.862526"
         y="62.9902" />
    </g>
    <g
       id="g5751"
       transform="translate(-7.6611829,-10.340713)">
      <rect
         style="opacity:1;fill:#4d4d4d;fill-opacity:1;fill-rule:nonzero;stroke:none;stroke-width:0.87902004;stroke-miterlimit:4;stroke-dasharray:none;stroke-opacity:1"
         id="rect4844-2-1-6-4-3-7"
         width="20.012838"
         height="13.955478"
         x="166.75591"
         y="61.38472" />
      <rect
         style="opacity:1;fill:#ffffff;fill-opacity:1;fill-rule:nonzero;stroke:none;stroke-width:0.71277392;stroke-miterlimit:4;stroke-dasharray:none;stroke-opacity:1"
         id="rect4844-3-3-7-9-5-3-3"
         width="17.091255"
         height="10.744482"
         x="168.21669"
         y="62.9902" />
    </g>
    <rect
       y="26.865557"
       x="104.65268"
       height="13.955478"
       width="20.012838"
       id="rect4844-2-1-4"
       style="opacity:1;fill:#4d4d4d;fill-opacity:1;fill-rule:nonzero;stroke:none;stroke-width:0.87902004;stroke-miterlimit:4;stroke-dasharray:none;stroke-opacity:1" />
    <rect
       y="28.471037"
       x="106.11347"
       height="10.744482"
       width="17.091255"
       id="rect4844-3-3-7-1"
       style="opacity:1;fill:#ffffff;fill-opacity:1;fill-rule:nonzero;stroke:none;stroke-width:0.71277392;stroke-miterlimit:4;stroke-dasharray:none;stroke-opacity:1" />
  </g>
</svg>
