[
  {
    "Name": "Club",
    "Cost": "1 sp",
    "Weight": "2 lb.",
    "Rules": ""
  },
  {
    "Name": "Dagger",
    "Cost": "2 gp",
    "Weight": "1 lb.",
    "Rules": ""
  },
  {
    "Name": "Greatclub",
    "Cost": "2 sp",
    "Weight": "10 lb.",
    "Rules": ""
  },
  {
    "Name": "Handaxe",
    "Cost": "5 gp",
    "Weight": "2 lb.",
    "Rules": ""
  },
  {
    "Name": "Javelin",
    "Cost": "5 sp",
    "Weight": "2 lb.",
    "Rules": ""
  },
  {
    "Name": "Light hammer",
    "Cost": "2 gp",
    "Weight": "2 lb.",
    "Rules": ""
  },
  {
    "Name": "Mace",
    "Cost": "5 gp",
    "Weight": "4 lb.",
    "Rules": ""
  },
  {
    "Name": "Quarterstaff",
    "Cost": "2 sp",
    "Weight": "4 lb.",
    "Rules": ""
  },
  {
    "Name": "Sickle",
    "Cost": "1 gp",
    "Weight": "2 lb.",
    "Rules": ""
  },
  {
    "Name": "Spear",
    "Cost": "1 gp",
    "Weight": "3 lb.",
    "Rules": ""
  },
  {
    "Name": "Crossbow, light",
    "Cost": "25 gp",
    "Weight": "5 lb.",
    "Rules": ""
  },
  {
    "Name": "Dart",
    "Cost": "5 cp",
    "Weight": "1/4 lb.",
    "Rules": ""
  },
  {
    "Name": "Shortbow",
    "Cost": "25 gp",
    "Weight": "2 lb.",
    "Rules": ""
  },
  {
    "Name": "Sling",
    "Cost": "1 sp",
    "Weight": "",
    "Rules": ""
  },
  {
    "Name": "Battleaxe",
    "Cost": "10 gp",
    "Weight": "4 lb.",
    "Rules": ""
  },
  {
    "Name": "Dwarven Urgrosh (3pp)",
    "Cost": "22 gp",
    "Weight": "4 lb.",
    "Rules": ""
  },
  {
    "Name": "Elven Crescent Blade (3pp)",
    "Cost": "80 gp",
    "Weight": "6 lb.",
    "Rules": ""
  },
  {
    "Name": "Flail",
    "Cost": "10 gp",
    "Weight": "2 lb.",
    "Rules": ""
  },
  {
    "Name": "Glaive",
    "Cost": "20 gp",
    "Weight": "6 lb.",
    "Rules": ""
  },
  {
    "Name": "Greataxe",
    "Cost": "30 gp",
    "Weight": "7 lb.",
    "Rules": ""
  },
  {
    "Name": "Greatsword",
    "Cost": "50 gp",
    "Weight": "6 lb.",
    "Rules": ""
  },
  {
    "Name": "Halberd",
    "Cost": "20 gp",
    "Weight": "6 lb.",
    "Rules": ""
  },
  {
    "Name": "Lance",
    "Cost": "10 gp",
    "Weight": "6 lb.",
    "Rules": ""
  },
  {
    "Name": "Longsword",
    "Cost": "15 gp",
    "Weight": "3 lb.",
    "Rules": ""
  },
  {
    "Name": "Maul",
    "Cost": "10 gp",
    "Weight": "10 lb.",
    "Rules": ""
  },
  {
    "Name": "Morningstar",
    "Cost": "15 gp",
    "Weight": "4 lb.",
    "Rules": ""
  },
  {
    "Name": "Pike",
    "Cost": "5 gp",
    "Weight": "18 lb.",
    "Rules": ""
  },
  {
    "Name": "Rapier",
    "Cost": "25 gp",
    "Weight": "2 lb.",
    "Rules": ""
  },
  {
    "Name": "Scimitar",
    "Cost": "25 gp",
    "Weight": "3 lb.",
    "Rules": ""
  },
  {
    "Name": "Shortsword",
    "Cost": "10 gp",
    "Weight": "2 lb.",
    "Rules": ""
  },
  {
    "Name": "Spiked Chain (3pp)",
    "Cost": "50 gp",
    "Weight": "10 lb.",
    "Rules": ""
  },
  {
    "Name": "Trident",
    "Cost": "5 gp",
    "Weight": "4 lb.",
    "Rules": ""
  },
  {
    "Name": "War pick",
    "Cost": "5 gp",
    "Weight": "2 lb.",
    "Rules": ""
  },
  {
    "Name": "Warhammer",
    "Cost": "15 gp",
    "Weight": "2 lb.",
    "Rules": ""
  },
  {
    "Name": "Whip",
    "Cost": "2 gp",
    "Weight": "3 lb.",
    "Rules": ""
  },
  {
    "Name": "War Scythe (3pp)",
    "Cost": "25 gp",
    "Weight": "4 lb.",
    "Rules": ""
  },
  {
    "Name": "Blowgun",
    "Cost": "10 gp",
    "Weight": "1 lb.",
    "Rules": ""
  },
  {
    "Name": "Crossbow, hand",
    "Cost": "75 gp",
    "Weight": "3 lb.",
    "Rules": ""
  },
  {
    "Name": "Crossbow, heavy",
    "Cost": "50 gp",
    "Weight": "18 lb.",
    "Rules": ""
  },
  {
    "Name": "Great Bow (3pp)",
    "Cost": "100 gp",
    "Weight": "2 lb.",
    "Rules": ""
  },
  {
    "Name": "Longbow",
    "Cost": "50 gp",
    "Weight": "2 lb.",
    "Rules": ""
  },
  {
    "Name": "Net",
    "Cost": "1 gp",
    "Weight": "3 lb.",
    "Rules": ""
  },
  {
    "Name": "Padded",
    "Cost": "5 gp",
    "Weight": "8 lb.",
    "Rules": "Armour"
  },
  {
    "Name": "Leather",
    "Cost": "10 gp",
    "Weight": "10 lb.",
    "Rules": "Armour"
  },
  {
    "Name": "Studded Leather",
    "Cost": "45 gp",
    "Weight": "13 lb.",
    "Rules": "Armour"
  },
  {
    "Name": "Hide",
    "Cost": "10 gp",
    "Weight": "12 lb.",
    "Rules": "Armour"
  },
  {
    "Name": "Chain Shirt",
    "Cost": "50 gp",
    "Weight": "20 lb.",
    "Rules": "Armour"
  },
  {
    "Name": "Scale Mail",
    "Cost": "50 gp",
    "Weight": "45 lb.",
    "Rules": "Armour"
  },
  {
    "Name": "Breastplate",
    "Cost": "400 gp",
    "Weight": "20 lb.",
    "Rules": "Armour"
  },
  {
    "Name": "Half Plate",
    "Cost": "750 gp",
    "Weight": "40 lb.",
    "Rules": "Armour"
  },
  {
    "Name": "Ring Mail",
    "Cost": "30 gp",
    "Weight": "40 lb.",
    "Rules": "Armour"
  },
  {
    "Name": "Chain Mail",
    "Cost": "75 gp",
    "Weight": "55 lb.",
    "Rules": "Armour"
  },
  {
    "Name": "Splint",
    "Cost": "200 gp",
    "Weight": "60 lb.",
    "Rules": "Armour"
  },
  {
    "Name": "Plate",
    "Cost": "1,500 gp",
    "Weight": "65 lb.",
    "Rules": "Armour"
  },
  {
    "Name": "Shield",
    "Cost": "10 gp",
    "Weight": "6 lb.",
    "Rules": "Armour"
  },
  {
    "Name": "Abacus",
    "Cost": "2 gp",
    "Weight": "2 lb.",
    "Rules": "Armour"
  },
  {
    "Name": "Acid (vial)",
    "Cost": "25 gp",
    "Weight": "1 lb.",
    "Rules": "As an action, you can splash the contents of this vial onto a creature within 5 feet of you or throw the vial up to 20 feet, shattering it on impact. In either case, make a ranged attack against a creature or object, treating the acid as an improvised weapon. On a hit, the target takes 2d6 acid damage."
  },
  {
    "Name": "Alchemist’s fire (flask)",
    "Cost": "50 gp",
    "Weight": "1 lb.",
    "Rules": "This sticky, adhesive fluid ignites when exposed to air. As an action, you can throw this flask up to 20 feet, shattering it on impact. Make a ranged attack against a creature or object, treating the alchemist’s fire as an improvised weapon. On a hit, the target takes 1d4 fire damage at the start of each of its turns. A creature can end this damage by using its action to make a DC 10 Dexterity check to extinguish the flames."
  },
  {
    "Name": "Arrows (20)",
    "Cost": "1 gp",
    "Weight": "1 lb.",
    "Rules": ""
  },
  {
    "Name": "Blowgun needles (50)",
    "Cost": "1 gp",
    "Weight": "1 lb.",
    "Rules": ""
  },
  {
    "Name": "Crossbow bolts (20)",
    "Cost": "1 gp",
    "Weight": "1½ lb.",
    "Rules": ""
  },
  {
    "Name": "Sling bullets (20)",
    "Cost": "4 cp",
    "Weight": "1½ lb.",
    "Rules": ""
  },
  {
    "Name": "Amulet",
    "Cost": "5 gp",
    "Weight": "1 lb.",
    "Rules": ""
  },
  {
    "Name": "Antitoxin (vial)",
    "Cost": "50 gp",
    "Weight": "",
    "Rules": "A creature that drinks this vial of liquid gains advantage on saving throws against poison for 1 hour. It confers no benefit to undead or constructs."
  },
  {
    "Name": "Crystal",
    "Cost": "10 gp",
    "Weight": "1 lb.",
    "Rules": "An arcane focus is a special item— an orb, a crystal, a rod, a specially constructed staff, a wand-like length of wood, or some similar item— designed to channel the power of arcane spells. A sorcerer, warlock, or wizard can use such an item as a spellcasting focus."
  },
  {
    "Name": "Orb",
    "Cost": "20 gp",
    "Weight": "3 lb.",
    "Rules": "An arcane focus is a special item— an orb, a crystal, a rod, a specially constructed staff, a wand-like length of wood, or some similar item— designed to channel the power of arcane spells. A sorcerer, warlock, or wizard can use such an item as a spellcasting focus."
  },
  {
    "Name": "Rod",
    "Cost": "10 gp",
    "Weight": "2 lb.",
    "Rules": "An arcane focus is a special item— an orb, a crystal, a rod, a specially constructed staff, a wand-like length of wood, or some similar item— designed to channel the power of arcane spells. A sorcerer, warlock, or wizard can use such an item as a spellcasting focus."
  },
  {
    "Name": "Staff",
    "Cost": "5 gp",
    "Weight": "4 lb.",
    "Rules": "An arcane focus is a special item— an orb, a crystal, a rod, a specially constructed staff, a wand-like length of wood, or some similar item— designed to channel the power of arcane spells. A sorcerer, warlock, or wizard can use such an item as a spellcasting focus."
  },
  {
    "Name": "Wand",
    "Cost": "10 gp",
    "Weight": "1 lb.",
    "Rules": "An arcane focus is a special item— an orb, a crystal, a rod, a specially constructed staff, a wand-like length of wood, or some similar item— designed to channel the power of arcane spells. A sorcerer, warlock, or wizard can use such an item as a spellcasting focus."
  },
  {
    "Name": "Backpack",
    "Cost": "2 gp",
    "Weight": "5 lb.",
    "Rules": ""
  },
  {
    "Name": "Ball bearings (bag of 1,000)",
    "Cost": "1 gp",
    "Weight": "2 lb.",
    "Rules": "As an action, you can spill these tiny metal balls from their pouch to cover a level, square area that is 10 feet on a side. A creature moving across the covered area must succeed on a DC 10 Dexterity saving throw or fall prone. A creature moving through the area at half speed doesn’t need to make the save."
  },
  {
    "Name": "Barrel",
    "Cost": "2 gp",
    "Weight": "70 lb.",
    "Rules": ""
  },
  {
    "Name": "Basket",
    "Cost": "4 sp",
    "Weight": "2 lb.",
    "Rules": ""
  },
  {
    "Name": "Bedroll",
    "Cost": "1 gp",
    "Weight": "7 lb.",
    "Rules": ""
  },
  {
    "Name": "Bell",
    "Cost": "1 gp",
    "Weight": "",
    "Rules": ""
  },
  {
    "Name": "Blanket",
    "Cost": "5 sp",
    "Weight": "3 lb.",
    "Rules": ""
  },
  {
    "Name": "Block and tackle",
    "Cost": "1 gp",
    "Weight": "5 lb.",
    "Rules": "A set of pulleys with a cable threaded through them and a hook to attach to objects, a block and tackle allows you to hoist up to four times the weight you can normally lift."
  },
  {
    "Name": "Book",
    "Cost": "25 gp",
    "Weight": "5 lb.",
    "Rules": "A book might contain poetry, historical accounts, information pertaining to a particular field of lore, diagrams and notes on gnomish contraptions, or just about anything else that can be represented using text or pictures."
  },
  {
    "Name": "Bottle, glass",
    "Cost": "2 gp",
    "Weight": "2 lb.",
    "Rules": ""
  },
  {
    "Name": "Bucket",
    "Cost": "5 cp",
    "Weight": "2 lb.",
    "Rules": ""
  },
  {
    "Name": "Caltrops (bag of 20)",
    "Cost": "1 gp",
    "Weight": "2 lb.",
    "Rules": "As an action, you can spread a bag of caltrops to cover a square area that is 5 feet on a side. Any creature that enters the area must succeed on a DC 15 Dexterity saving throw or stop moving this turn and take 1 piercing damage. Taking this damage reduces the creature’s walking speed by 10 feet until the creature regains at least 1 hit point. A creature moving through the area at half speed doesn’t need to make the save."
  },
  {
    "Name": "Candle",
    "Cost": "1 cp",
    "Weight": "",
    "Rules": "For 1 hour, a candle sheds bright light in a 5-foot radius and dim light for an additional 5 feet."
  },
  {
    "Name": "Case, crossbow bolt",
    "Cost": "1 gp",
    "Weight": "1 lb.",
    "Rules": "This wooden case can hold up to twenty crossbow bolts."
  },
  {
    "Name": "Case, map or scroll",
    "Cost": "1 gp",
    "Weight": "1 lb.",
    "Rules": "This cylindrical leather case can hold up to ten rolled-up sheets of paper or five rolled-up sheets of parchment."
  },
  {
    "Name": "Chain (10 feet)",
    "Cost": "5 gp",
    "Weight": "10 lb.",
    "Rules": "A chain has 10 hit points. It can be burst with a successful DC 20 Strength check."
  },
  {
    "Name": "Chalk (1 piece)",
    "Cost": "1 cp",
    "Weight": "",
    "Rules": ""
  },
  {
    "Name": "Chest",
    "Cost": "5 gp",
    "Weight": "25 lb.",
    "Rules": ""
  },
  {
    "Name": "Clothes, common",
    "Cost": "5 sp",
    "Weight": "3 lb.",
    "Rules": ""
  },
  {
    "Name": "Clothes, costume",
    "Cost": "5 gp",
    "Weight": "4 lb.",
    "Rules": ""
  },
  {
    "Name": "Clothes, fine",
    "Cost": "15 gp",
    "Weight": "6 lb.",
    "Rules": ""
  },
  {
    "Name": "Clothes, traveler’s",
    "Cost": "2 gp",
    "Weight": "4 lb.",
    "Rules": ""
  },
  {
    "Name": "Component pouch",
    "Cost": "25 gp",
    "Weight": "2 lb.",
    "Rules": "A component pouch is a small, watertight leather belt pouch that has compartments to hold all the material components and other special items you need to cast your spells, except for those components that have a specific cost (as indicated in a spell’s description)."
  },
  {
    "Name": "Crowbar",
    "Cost": "2 gp",
    "Weight": "5 lb.",
    "Rules": "Using a crowbar grants advantage to Strength checks where the crowbar’s leverage can be applied."
  },
  {
    "Name": "Sprig of mistletoe",
    "Cost": "1 gp",
    "Weight": "",
    "Rules": "A druidic focus might be a sprig of mistletoe or holly, a wand or scepter made of yew or another special wood, a staff drawn whole out of a living tree, or a totem object incorporating feathers, fur, bones, and teeth from sacred animals. A druid can use such an object as a spellcasting focus."
  },
  {
    "Name": "Totem",
    "Cost": "1 gp",
    "Weight": "",
    "Rules": "A druidic focus might be a sprig of mistletoe or holly, a wand or scepter made of yew or another special wood, a staff drawn whole out of a living tree, or a totem object incorporating feathers, fur, bones, and teeth from sacred animals. A druid can use such an object as a spellcasting focus."
  },
  {
    "Name": "Wooden staff",
    "Cost": "5 gp",
    "Weight": "4 lb.",
    "Rules": "A druidic focus might be a sprig of mistletoe or holly, a wand or scepter made of yew or another special wood, a staff drawn whole out of a living tree, or a totem object incorporating feathers, fur, bones, and teeth from sacred animals. A druid can use such an object as a spellcasting focus."
  },
  {
    "Name": "Yew wand",
    "Cost": "10 gp",
    "Weight": "1 lb.",
    "Rules": "A druidic focus might be a sprig of mistletoe or holly, a wand or scepter made of yew or another special wood, a staff drawn whole out of a living tree, or a totem object incorporating feathers, fur, bones, and teeth from sacred animals. A druid can use such an object as a spellcasting focus."
  },
  {
    "Name": "Emblem",
    "Cost": "5 gp",
    "Weight": "",
    "Rules": ""
  },
  {
    "Name": "Fishing tackle",
    "Cost": "1 gp",
    "Weight": "4 lb.",
    "Rules": "This kit includes a wooden rod, silken line, corkwood bobbers, steel hooks, lead sinkers, velvet lures, and narrow netting."
  },
  {
    "Name": "Flask or tankard",
    "Cost": "2 cp",
    "Weight": "1 lb.",
    "Rules": ""
  },
  {
    "Name": "Grappling hook",
    "Cost": "2 gp",
    "Weight": "4 lb.",
    "Rules": ""
  },
  {
    "Name": "Hammer",
    "Cost": "1 gp",
    "Weight": "3 lb.",
    "Rules": ""
  },
  {
    "Name": "Hammer, sledge",
    "Cost": "2 gp",
    "Weight": "10 lb.",
    "Rules": ""
  },
  {
    "Name": "Holy Symbol",
    "Cost": "10 gp",
    "Weight": "1 lb.",
    "Rules": "A holy symbol is a representation of a god or pantheon. It might be an amulet depicting a symbol representing a deity, the same symbol carefully engraved or inlaid as an emblem on a shield, or a tiny box holding a fragment of a sacred relic. Appendix B lists the symbols commonly associated with many gods in the multiverse. A cleric or paladin can use a holy symbol as a spellcasting focus. To use the symbol in this way, the caster must hold it in hand, wear it visibly, or bear it on a shield."
  },
  {
    "Name": "Holy water (flask)",
    "Cost": "25 gp",
    "Weight": "1 lb.",
    "Rules": "As an action, you can splash the contents of this flask onto a creature within 5 feet of you or throw it up to 20 feet, shattering it on impact. In either case, make a ranged attack against a target creature, treating the holy water as an improvised weapon. If the target is a fiend or undead, it takes 2d6 radiant damage. A cleric or paladin may create holy water by performing a special ritual. The ritual takes 1 hour to perform, uses 25 gp worth of powdered silver, and requires the caster to expend a 1st-level spell slot."
  },
  {
    "Name": "Hourglass",
    "Cost": "25 gp",
    "Weight": "1 lb.",
    "Rules": ""
  },
  {
    "Name": "Hunting trap",
    "Cost": "5 gp",
    "Weight": "25 lb.",
    "Rules": "When you use your action to set it, this trap forms a saw-toothed steel ring that snaps shut when a creature steps on a pressure plate in the center. The trap is affixed by a heavy chain to an immobile object, such as a tree or a spike driven into the ground. A creature that steps on the plate must succeed on a DC 13 Dexterity saving throw or take 1d4 piercing damage and stop moving. Thereafter, until the creature breaks free of the trap, its movement is limited by the length of the chain (typically 3 feet long). A creature can use its action to make a DC 13 Strength check, freeing itself or another creature within its reach on a success. Each failed check deals 1 piercing damage to the trapped creature."
  },
  {
    "Name": "Ink (1 ounce bottle)",
    "Cost": "10 gp",
    "Weight": "",
    "Rules": ""
  },
  {
    "Name": "Ink pen",
    "Cost": "2 cp",
    "Weight": "",
    "Rules": ""
  },
  {
    "Name": "Jug or pitcher",
    "Cost": "2 cp",
    "Weight": "4 lb.",
    "Rules": ""
  },
  {
    "Name": "Kit, climber’s",
    "Cost": "25 gp",
    "Weight": "12 lb.",
    "Rules": "A climber’s kit includes special pitons, boot tips, gloves, and a harness. You can use the climber’s kit as an action to anchor yourself; when you do, you can’t fall more than 25 feet from the point where you anchored yourself, and you can’t climb more than 25 feet away from that point without undoing the anchor."
  },
  {
    "Name": "Kit, disguise",
    "Cost": "25 gp",
    "Weight": "3 lb.",
    "Rules": ""
  },
  {
    "Name": "Kit, forgery",
    "Cost": "15 gp",
    "Weight": "5 lb.",
    "Rules": ""
  },
  {
    "Name": "Kit, herbalism",
    "Cost": "5 gp",
    "Weight": "3 lb.",
    "Rules": ""
  },
  {
    "Name": "Kit, healer’s",
    "Cost": "5 gp",
    "Weight": "3 lb.",
    "Rules": "This kit is a leather pouch containing bandages, salves, and splints. The kit has ten uses. As an action, you can expend one use of the kit to stabilize a creature that has 0 hit points, without needing to make a Wisdom (Medicine) check."
  },
  {
    "Name": "Kit, mess",
    "Cost": "2 sp",
    "Weight": "1 lb.",
    "Rules": "This tin box contains a cup and simple cutlery. The box clamps together, and one side can be used as a cooking pan and the other as a plate or shallow bowl."
  },
  {
    "Name": "Kit, poisoner’s",
    "Cost": "50 gp",
    "Weight": "2 lb.",
    "Rules": ""
  },
  {
    "Name": "Ladder (10-foot)",
    "Cost": "1 sp",
    "Weight": "25 lb.",
    "Rules": ""
  },
  {
    "Name": "Lamp",
    "Cost": "5 sp",
    "Weight": "1 lb.",
    "Rules": "A lamp casts bright light in a 15-foot radius and dim light for an additional 30 feet. Once lit, it burns for 6 hours on a flask (1 pint) of oil."
  },
  {
    "Name": "Lantern, bullseye",
    "Cost": "10 gp",
    "Weight": "2 lb.",
    "Rules": "A bullseye lantern casts bright light in a 60-foot cone and dim light for an additional 60 feet. Once lit, it burns for 6 hours on a flask (1 pint) of oil."
  },
  {
    "Name": "Lantern, hooded",
    "Cost": "5 gp",
    "Weight": "2 lb.",
    "Rules": "A hooded lantern casts bright light in a 30-foot radius and dim light for an additional 30 feet. Once lit, it burns for 6 hours on a flask (1 pint) of oil. As an action, you can lower the hood, reducing the light to dim light in a 5-foot radius."
  },
  {
    "Name": "Lock",
    "Cost": "10 gp",
    "Weight": "1 lb.",
    "Rules": "A key is provided with the lock. Without the key, a creature proficient with thieves’ tools can pick this lock with a successful DC 15 Dexterity check. Your GM may decide that better locks are available for higher prices."
  },
  {
    "Name": "Magnifying glass",
    "Cost": "100 gp",
    "Weight": "",
    "Rules": "This lens allows a closer look at small objects. It is also useful as a substitute for flint and steel when starting fires. Lighting a fire with a magnifying glass requires light as bright as sunlight to focus, tinder to ignite, and about 5 minutes for the fire to ignite. A magnifying glass grants advantage on any ability check made to appraise or inspect an item that is small or highly detailed."
  },
  {
    "Name": "Manacles",
    "Cost": "2 gp",
    "Weight": "6 lb.",
    "Rules": "These metal restraints can bind a Small or Medium creature. Escaping the manacles requires a successful DC 20 Dexterity check. Breaking them requires a successful DC 20 Strength check. Each set of manacles comes with one key. Without the key, a creature proficient with thieves’ tools can pick the manacles’ lock with a successful DC 15 Dexterity check. Manacles have 15 hit points."
  },
  {
    "Name": "Mirror, steel",
    "Cost": "5 gp",
    "Weight": "1/2 lb.",
    "Rules": ""
  },
  {
    "Name": "Oil (flask)",
    "Cost": "1 sp",
    "Weight": "1 lb.",
    "Rules": "Oil usually comes in a clay flask that holds 1 pint. As an action, you can splash the oil in this flask onto a creature within 5 feet of you or throw it up to 20 feet, shattering it on impact. Make a ranged attack against a target creature or object, treating the oil as an improvised weapon. On a hit, the target is covered in oil. If the target takes any fire damage before the oil dries (after 1 minute), the target takes an additional 5 fire damage from the burning oil. You can also pour a flask of oil on the ground to cover a 5-foot-square area, provided that the surface is level. If lit, the oil burns for 2 rounds and deals 5 fire damage to any creature that enters the area or ends its turn in the area. A creature can take this damage only once per turn."
  },
  {
    "Name": "Paper (one sheet)",
    "Cost": "2 sp",
    "Weight": "",
    "Rules": ""
  },
  {
    "Name": "Parchment (one sheet)",
    "Cost": "1 sp",
    "Weight": "",
    "Rules": ""
  },
  {
    "Name": "Perfume (vial)",
    "Cost": "5 gp",
    "Weight": "",
    "Rules": ""
  },
  {
    "Name": "Pick, miner’s",
    "Cost": "2 gp",
    "Weight": "10 lb.",
    "Rules": ""
  },
  {
    "Name": "Piton",
    "Cost": "5 cp",
    "Weight": "1/4 lb.",
    "Rules": ""
  },
  {
    "Name": "Poison, basic (vial)",
    "Cost": "100 gp",
    "Weight": "",
    "Rules": "You can use the poison in this vial to coat one slashing or piercing weapon or up to three pieces of ammunition. Applying the poison takes an action. A creature hit by the poisoned weapon or ammunition must make a DC 10 Constitution saving throw or take 1d4 poison damage. Once applied, the poison retains potency for 1 minute before drying."
  },
  {
    "Name": "Pole (10-foot)",
    "Cost": "5 cp",
    "Weight": "7 lb.",
    "Rules": ""
  },
  {
    "Name": "Pot, iron",
    "Cost": "2 gp",
    "Weight": "10 lb.",
    "Rules": ""
  },
  {
    "Name": "Potion of healing",
    "Cost": "50 gp",
    "Weight": "1/2 lb.",
    "Rules": "A character who drinks the magical red fluid in this vial regains 2d4 + 2 hit points. Drinking or administering a potion takes an action."
  },
  {
    "Name": "Pouch",
    "Cost": "5 sp",
    "Weight": "1 lb.",
    "Rules": "A cloth or leather pouch can hold up to 20 sling bullets or 50 blowgun needles, among other things. A compartmentalized pouch for holding spell components is called a component pouch (described earlier in this section)."
  },
  {
    "Name": "Quiver",
    "Cost": "1 gp",
    "Weight": "1 lb.",
    "Rules": "A quiver can hold up to 20 arrows."
  },
  {
    "Name": "Ram, portable",
    "Cost": "4 gp",
    "Weight": "35 lb.",
    "Rules": "You can use a portable ram to break down doors. When doing so, you gain a +4 bonus on the Strength check. One other character can help you use the ram, giving you advantage on this check."
  },
  {
    "Name": "Rations (1 day)",
    "Cost": "5 sp",
    "Weight": "2 lb.",
    "Rules": "Rations consist of dry foods suitable for extended travel, including jerky, dried fruit, hardtack, and nuts."
  },
  {
    "Name": "Reliquary",
    "Cost": "5 gp",
    "Weight": "2 lb.",
    "Rules": ""
  },
  {
    "Name": "Robes",
    "Cost": "1 gp",
    "Weight": "4 lb.",
    "Rules": ""
  },
  {
    "Name": "Rope, hempen (50 feet)",
    "Cost": "1 gp",
    "Weight": "10 lb.",
    "Rules": "Rope, whether made of hemp or silk, has 2 hit points and can be burst with a DC 17 Strength check."
  },
  {
    "Name": "Rope, silk (50 feet)",
    "Cost": "10 gp",
    "Weight": "5 lb.",
    "Rules": "Rope, whether made of hemp or silk, has 2 hit points and can be burst with a DC 17 Strength check."
  },
  {
    "Name": "Sack",
    "Cost": "1 cp",
    "Weight": "1/2 lb.",
    "Rules": ""
  },
  {
    "Name": "Scale, merchant’s",
    "Cost": "5 gp",
    "Weight": "3 lb.",
    "Rules": "A scale includes a small balance, pans, and a suitable assortment of weights up to 2 pounds. With it, you can measure the exact weight of small objects, such as raw precious metals or trade goods, to help determine their worth."
  },
  {
    "Name": "Sealing wax",
    "Cost": "5 sp",
    "Weight": "",
    "Rules": ""
  },
  {
    "Name": "Shovel",
    "Cost": "2 gp",
    "Weight": "5 lb.",
    "Rules": ""
  },
  {
    "Name": "Signal whistle",
    "Cost": "5 cp",
    "Weight": "",
    "Rules": ""
  },
  {
    "Name": "Signet ring",
    "Cost": "5 gp",
    "Weight": "",
    "Rules": ""
  },
  {
    "Name": "Soap",
    "Cost": "2 cp",
    "Weight": "",
    "Rules": ""
  },
  {
    "Name": "Spellbook",
    "Cost": "50 gp",
    "Weight": "3 lb.",
    "Rules": "Essential for wizards, a spellbook is a leather-bound tome with 100 blank vellum pages suitable for recording spells."
  },
  {
    "Name": "Spikes, iron (10)",
    "Cost": "1 gp",
    "Weight": "5 lb.",
    "Rules": ""
  },
  {
    "Name": "Spyglass",
    "Cost": "1,000 gp",
    "Weight": "1 lb.",
    "Rules": "Objects viewed through a spyglass are magnified to twice their size."
  },
  {
    "Name": "Tent, two-person",
    "Cost": "2 gp",
    "Weight": "20 lb.",
    "Rules": "A simple and portable canvas shelter, a tent sleeps two."
  },
  {
    "Name": "Tinderbox",
    "Cost": "5 sp",
    "Weight": "1 lb.",
    "Rules": "This small container holds flint, fire steel, and tinder (usually dry cloth soaked in light oil) used to kindle a fire. Using it to light a torch—or anything else with abundant, exposed fuel—takes an action. Lighting any other fire takes 1 minute."
  },
  {
    "Name": "Torch",
    "Cost": "1 cp",
    "Weight": "1 lb.",
    "Rules": "A torch burns for 1 hour, providing bright light in a 20-foot radius and dim light for an additional 20 feet. If you make a melee attack with a burning torch and hit, it deals 1 fire damage."
  },
  {
    "Name": "Vial",
    "Cost": "1 gp",
    "Weight": "",
    "Rules": ""
  },
  {
    "Name": "Waterskin",
    "Cost": "2 sp",
    "Weight": "5 lb. (full)",
    "Rules": ""
  },
  {
    "Name": "Whetstone",
    "Cost": "1 cp",
    "Weight": "1 lb.",
    "Rules": ""
  },
  {
    "Name": "Alchemist’s supplies",
    "Cost": "50 gp",
    "Weight": "8 lb.",
    "Rules": ""
  },
  {
    "Name": "Brewer’s supplies",
    "Cost": "20 gp",
    "Weight": "9 lb.",
    "Rules": ""
  },
  {
    "Name": "Calligrapher’s supplies",
    "Cost": "10 gp",
    "Weight": "5 lb.",
    "Rules": ""
  },
  {
    "Name": "Carpenter’s tools",
    "Cost": "8 gp",
    "Weight": "6 lb.",
    "Rules": ""
  },
  {
    "Name": "Cartographer’s tools",
    "Cost": "15 gp.",
    "Weight": "6 lb.",
    "Rules": ""
  },
  {
    "Name": "Cobbler’s tools",
    "Cost": "5 gp",
    "Weight": "5 lb.",
    "Rules": ""
  },
  {
    "Name": "Cook’s utensils",
    "Cost": "1 gp",
    "Weight": "8 lb.",
    "Rules": ""
  },
  {
    "Name": "Glassblower’s tools",
    "Cost": "30 gp",
    "Weight": "5 lb.",
    "Rules": ""
  },
  {
    "Name": "Jeweler’s tools",
    "Cost": "25 gp",
    "Weight": "2 lb.",
    "Rules": ""
  },
  {
    "Name": "Leatherworker’s tools",
    "Cost": "5 gp",
    "Weight": "5 lb.",
    "Rules": ""
  },
  {
    "Name": "Mason’s tools",
    "Cost": "10 gp",
    "Weight": "8 lb.",
    "Rules": ""
  },
  {
    "Name": "Painter’s supplies",
    "Cost": "10 gp",
    "Weight": "5 lb.",
    "Rules": ""
  },
  {
    "Name": "Potter’s tools",
    "Cost": "10 gp",
    "Weight": "3 lb.",
    "Rules": ""
  },
  {
    "Name": "Smith’s tools",
    "Cost": "20 gp",
    "Weight": "8 lb.",
    "Rules": ""
  },
  {
    "Name": "Tinker’s tools",
    "Cost": "50 gp",
    "Weight": "10 lb.",
    "Rules": ""
  },
  {
    "Name": "Weaver’s tools",
    "Cost": "1 gp",
    "Weight": "5 lb.",
    "Rules": ""
  },
  {
    "Name": "Woodcarver’s tools",
    "Cost": "1 gp",
    "Weight": "5 lb.",
    "Rules": ""
  },
  {
    "Name": "Dice set",
    "Cost": "1 sp",
    "Weight": "",
    "Rules": ""
  },
  {
    "Name": "Playing card set",
    "Cost": "5 sp",
    "Weight": "",
    "Rules": ""
  },
  {
    "Name": "Bagpipes",
    "Cost": "30 gp",
    "Weight": "6 lb.",
    "Rules": ""
  },
  {
    "Name": "Drum",
    "Cost": "6 gp",
    "Weight": "3 lb.",
    "Rules": ""
  },
  {
    "Name": "Dulcimer",
    "Cost": "25 gp",
    "Weight": "10 lb.",
    "Rules": ""
  },
  {
    "Name": "Flute",
    "Cost": "2 gp",
    "Weight": "1 lb.",
    "Rules": ""
  },
  {
    "Name": "Lute",
    "Cost": "35 gp",
    "Weight": "2 lb.",
    "Rules": ""
  },
  {
    "Name": "Lyre",
    "Cost": "30 gp",
    "Weight": "2 lb.",
    "Rules": ""
  },
  {
    "Name": "Horn",
    "Cost": "3 gp",
    "Weight": "2 lb.",
    "Rules": ""
  },
  {
    "Name": "Pan flute",
    "Cost": "12 gp",
    "Weight": "2 lb.",
    "Rules": ""
  },
  {
    "Name": "Shawm",
    "Cost": "2 gp",
    "Weight": "1 lb.",
    "Rules": ""
  },
  {
    "Name": "Viol",
    "Cost": "30 gp",
    "Weight": "1 lb.",
    "Rules": ""
  },
  {
    "Name": "Navigator’s tools",
    "Cost": "25 gp",
    "Weight": "2 lb.",
    "Rules": ""
  },
  {
    "Name": "Thieves’ tools",
    "Cost": "25 gp",
    "Weight": "1 lb.",
    "Rules": ""
  },
  {
    "Name": "Ring of Subtlety",
    "Cost": "100 gp",
    "Weight": "",
    "Rules": "Once per day, while wearing this ring, one spell may be cast without any verbal or somatic components. "
  },
  {
    "Name": "Fire nuts",
    "Cost": "5 gp",
    "Weight": "",
    "Rules": "If consumed provide resistance to cold damage for 1 hour"
  },
  {
    "Name": "Acid Flower",
    "Cost": "80 gp",
    "Weight": "",
    "Rules": "Once per day upon squeezing the flower, a murky yellow liquid sprays out of it in a 10-foot line. Everyone in that line must succeed a DC 15 Dexterity Saving Throw or suffer 4d6 acid damage."
  },
  {
    "Name": "Aether Crystal",
    "Cost": "150 gp",
    "Weight": "1 lb.",
    "Rules": "Feeds off nearby magical energy"
  },
  {
    "Name": "Thick Cloak",
    "Cost": "8 gp",
    "Weight": "1 lb.",
    "Rules": "A thick dusty fur cloak, this will provide some protection from cold"
  },
  {
    "Name": "Drugs",
    "Cost": "2 gp",
    "Weight": "1 lb.",
    "Rules": "These are bad"
  },
  {
    "Name": "Greater Healing Potion",
    "Cost": "25 gp",
    "Weight": "1 lb.",
    "Rules": "You regain 4d4 + 4 hit points when you drink this potion. The potion's red liquid glimmers when agitated."
  },
  {
    "Name": "Ring of Spell Storing",
    "Cost": "200 gp",
    "Weight": "",
    "Rules": "This ring stores Spells cast into it, holding them until the attuned wearer uses them. The ring can store up to 5 levels worth of Spells at a time. When found, it contains 1d6 - 1 levels of stored Spells chosen by the DM.</br></br>Any creature can Cast a Spell of 1st through 5th level into the ring by touching the ring as the spell is cast. The spell has no effect, other than to be stored in the ring. If the ring can't hold the spell, the spell is expended without effect. The level of the slot used to cast the spell determines how much space it uses.</br></br>While wearing this ring, you can cast any spell stored in it. The spell uses the slot level, spell save DC, spell Attack bonus, and spellcasting ability of the original caster, but is otherwise treated as if you cast the spell. The spell cast from the ring is no longer stored in it, freeing up space."
  },
  {
    "Name": "Remorhaz Scale Shield",
    "Cost": "600 gp",
    "Weight": "8 lb.",
    "Rules": "A shield that looks like a solid slab of ice, when agitated it bursts into flames and if this continues it emits a gout of flame in a cone extending 15 feet, any creatures in this area take 2d10 fire damage"
  }
]